ARQ/simulation/qsim/QUEST_1.msim.vcd
$comment
	File created using the following command:
		vcd file QUEST_1.msim.vcd -direction
$end
$date
	Tue Aug 13 08:39:03 2019
$end
$version
	ModelSim Version 10.5b
$end
$timescale
	1ps
$end

$scope module quest_1_vhd_vec_tst $end
$var wire 1 ! a $end
$var wire 1 " b $end
$var wire 1 # c $end
$var wire 1 $ d $end
$var wire 1 % s $end

$scope module i1 $end
$var wire 1 & gnd $end
$var wire 1 ' vcc $end
$var wire 1 ( unknown $end
$var wire 1 ) devoe $end
$var wire 1 * devclrn $end
$var wire 1 + devpor $end
$var wire 1 , ww_devoe $end
$var wire 1 - ww_devclrn $end
$var wire 1 . ww_devpor $end
$var wire 1 / ww_a $end
$var wire 1 0 ww_b $end
$var wire 1 1 ww_c $end
$var wire 1 2 ww_d $end
$var wire 1 3 ww_s $end
$var wire 1 4 \~QUARTUS_CREATED_GND~I_combout\ $end
$var wire 1 5 \d~input_o\ $end
$var wire 1 6 \b~input_o\ $end
$var wire 1 7 \c~input_o\ $end
$var wire 1 8 \a~input_o\ $end
$var wire 1 9 \s~0_combout\ $end
$var wire 1 : \ALT_INV_d~input_o\ $end
$var wire 1 ; \ALT_INV_c~input_o\ $end
$var wire 1 < \ALT_INV_a~input_o\ $end
$var wire 1 = \ALT_INV_b~input_o\ $end
$upscope $end
$upscope $end
$enddefinitions $end
#0
$dumpvars
0!
0"
0#
0$
0%
0&
1'
x(
1)
1*
1+
1,
1-
1.
0/
00
01
02
03
x4
05
06
07
08
09
1:
1;
1<
1=
$end
#1000
1!
1/
18
0<
#2000
0!
1"
0/
10
16
08
1<
0=
#3000
1!
1/
18
0<
19
13
1%
#4000
0!
0"
1#
0/
00
11
17
06
08
1<
1=
0;
09
03
0%
#5000
1!
1/
18
0<
#6000
0!
1"
0/
10
16
08
1<
0=
#7000
1!
1/
18
0<
19
13
1%
#8000
0!
0"
0#
1$
0/
00
01
12
15
07
06
08
1<
1=
1;
0:
09
03
0%
#9000
1!
1/
18
0<
#10000
0!
1"
0/
10
16
08
1<
0=
#11000
1!
1/
18
0<
19
13
1%
#12000
0!
0"
1#
0/
00
11
17
06
08
1<
1=
0;
09
03
0%
#13000
1!
1/
18
0<
#14000
0!
1"
0/
10
16
08
1<
0=
19
13
1%
#15000
1!
1/
18
0<
#16000
0!
0"
0#
0$
0/
00
01
02
05
07
06
08
1<
1=
1;
1:
09
03
0%
#17000
1!
1/
18
0<
#18000
0!
1"
0/
10
16
08
1<
0=
#19000
1!
1/
18
0<
19
13
1%
